09_Ti60F225_HDMI_720P_ADCWord_NewVerison/09_Ti60F225_HDMI_720P_ADCWord_NewVerison/la0_waveform.vcd
$date today $end
$timescale 1 ns $end
$scope module top $end
$var wire 8 0 r_dataA $end
$var wire 8 1 r_dataB $end
$upscope $end
$enddefinitions $end
#0
$dumpvars
bx 0
bx 1
$end
#0 $dumpon
b10011111 0
b01100100 1
#1
b10011011 0
b01100001 1
#2
b10010111 0
b01011110 1
#3
b10010011 0
b01011011 1
#4
b10001101 0
b01011000 1
#5
b10001001 0
b01010101 1
#6
b10000011 0
b01010010 1
#7
b01111111 0
b01001110 1
#8
b01111010 0
b01001011 1
#9
b01110101 0
b01001000 1
#10
b01101111 0
b01000101 1
#11
b01101011 0
b01001000 1
#12
b01100111 0
b01001011 1
#13
b01100011 0
b01001110 1
#14
b01011111 0
b01010001 1
#15
b01011011 0
b01010100 1
#16
b01010111 0
b01010111 1
#17
b01010011 0
b01011010 1
#18
b01010001 0
b01011101 1
#19
b01001111 0
b01100001 1
#20
b01001011 0
b01100011 1
#21
b01001010 0
b01100111 1
#22
b01000111 0
b01101010 1
#23
b01101101 1
#24
b01000101 0
b01110000 1
#25
b01110011 1
#26
b01110110 1
#27
b01111010 1
#28
b01111100 1
#29
b01000111 0
b01111111 1
#30
b10000011 1
#31
b01001010 0
b10000101 1
#32
b01001011 0
b10001001 1
#33
b01001111 0
b10001100 1
#34
b01010001 0
b10001111 1
#35
b01010011 0
b10010011 1
#36
b01010111 0
b10010101 1
#37
b01011011 0
b10011000 1
#38
b01011111 0
b10011011 1
#39
b01100011 0
b10011110 1
#40
b01100111 0
b10100010 1
#41
b01101011 0
b10100101 1
#42
b01110000 0
b10101000 1
#43
b01110101 0
b10101011 1
#44
b01111010 0
b10101110 1
#45
b01111111 0
b10110010 1
#46
b10000011 0
b10110100 1
#47
b10001001 0
b10110111 1
#48
b10001110 0
b10111010 1
#49
b10010011 0
b10111110 1
#50
b10010111 0
b11000000 1
#51
b10011100 0
b10111110 1
#52
b10011111 0
b10111011 1
#53
b10100101 0
b10111000 1
#54
b10101000 0
b10110101 1
#55
b10101101 0
b10110010 1
#56
b10110000 0
b10101111 1
#57
b10110011 0
b10101100 1
#58
b10110111 0
b10101000 1
#59
b10111001 0
b10100101 1
#60
b10111011 0
b10100010 1
#61
b10111110 0
b10011111 1
#62
b10111111 0
b10011100 1
#63
b11000001 0
b10011001 1
#64
b11000010 0
b10010110 1
#65
b11000011 0
b10010011 1
#66
b10001111 1
#67
b11000010 0
b10001100 1
#68
b11000001 0
b10001010 1
#69
b10000110 1
#70
b10111111 0
b10000011 1
#71
b10111101 0
b10000000 1
#72
b10111011 0
b01111101 1
#73
b10111001 0
b01111010 1
#74
b10110110 0
b01110111 1
#75
b10110011 0
b01110100 1
#76
b10110000 0
b01110000 1
#77
b10101100 0
b01101110 1
#78
b10101000 0
b01101010 1
#79
b10100100 0
b01100111 1
#80
b10011111 0
b01100100 1
#81
b10011011 0
b01100010 1
#82
b10010111 0
b01011110 1
#83
b10010010 0
b01011010 1
#84
b10001101 0
b01011000 1
#85
b10001000 0
b01010100 1
#86
b10000011 0
b01010010 1
#87
b01111111 0
b01001110 1
#88
b01111001 0
b01001011 1
#89
b01110101 0
b01001000 1
#90
b01101111 0
b01000101 1
#91
b01101011 0
b01000111 1
#92
b01100111 0
b01001011 1
#93
b01100011 0
b01001110 1
#94
b01011111 0
b01010010 1
#95
b01011011 0
b01010100 1
#96
b01010111 0
b01010111 1
#97
b01010011 0
b01011010 1
#98
b01010001 0
b01011101 1
#99
b01001110 0
b01100000 1
#100
b01001011 0
b01100011 1
#101
b01001001 0
b01100111 1
#102
b01000111 0
b01101010 1
#103
b01101101 1
#104
b01000110 0
b01110000 1
#105
b01000101 0
b01110011 1
#106
b01110110 1
#107
b01111010 1
#108
b01000110 0
b01111100 1
#109
b01000111 0
b10000000 1
#110
b10000010 1
#111
b01001010 0
b10000110 1
#112
b01001011 0
b10001010 1
#113
b01001111 0
b10001100 1
#114
b01010001 0
b10001111 1
#115
b01010100 0
b10010010 1
#116
b01010111 0
b10010110 1
#117
b01011011 0
b10011000 1
#118
b01011111 0
b10011011 1
#119
b01100011 0
b10011111 1
#120
b01100111 0
b10100010 1
#121
b01101011 0
b10100101 1
#122
b01110000 0
b10101000 1
#123
b01110101 0
b10101011 1
#124
b01111010 0
b10101110 1
#125
b01111111 0
b10110001 1
#126
b10000100 0
b10110100 1
#127
b10001001 0
b10110111 1
#128
b10001110 0
b10111011 1
#129
b10010011 0
b10111110 1
#130
b10010111 0
b11000000 1
#131
b10011011 0
b10111111 1
#132
b10100000 0
b10111011 1
#133
b10100101 0
b10111000 1
#134
b10101001 0
b10110101 1
#135
b10101101 0
b10110010 1
#136
b10110000 0
b10101111 1
#137
b10110011 0
b10101100 1
#138
b10110111 0
b10101001 1
#139
b10111001 0
b10100101 1
#140
b10111011 0
b10100011 1
#141
b10111110 0
b10011111 1
#142
b10111111 0
b10011100 1
#143
b11000001 0
b10011010 1
#144
b11000010 0
b10010110 1
#145
b11000011 0
b10010011 1
#146
b11000010 0
b10010000 1
#147
b11000011 0
b10001100 1
#148
b11000001 0
b10001010 1
#149
b10000110 1
#150
b10111111 0
b10000011 1
#151
b10111110 0
b10000000 1
#152
b10111011 0
b01111101 1
#153
b10111001 0
b01111010 1
#154
b10110111 0
b01110111 1
#155
b10110011 0
b01110100 1
#156
b10101111 0
b01110000 1
#157
b10101100 0
b01101110 1
#158
b10101000 0
b01101011 1
#159
b10100100 0
b01100111 1
#160
b10011111 0
b01100100 1
#161
b10011011 0
b01100010 1
#162
b10010111 0
b01011110 1
#163
b10010010 0
b01011011 1
#164
b10001101 0
b01011000 1
#165
b10001001 0
b01010101 1
#166
b10000011 0
b01010010 1
#167
b01111111 0
b01001111 1
#168
b01111010 0
b01001100 1
#169
b01110100 0
b01001000 1
#170
b01101111 0
b01000101 1
#171
b01101011 0
b01001000 1
#172
b01100111 0
b01001011 1
#173
b01100011 0
b01001110 1
#174
b01011111 0
b01010001 1
#175
b01011011 0
b01010100 1
#176
b01010111 0
b01010111 1
#177
b01010100 0
b01011010 1
#178
b01010001 0
b01011101 1
#179
b01001110 0
b01100000 1
#180
b01001011 0
b01100011 1
#181
b01001010 0
b01100110 1
#182
b01001000 0
b01101010 1
#183
b01000111 0
b01101101 1
#184
b01000110 0
b01110000 1
#185
b01000101 0
b01110011 1
#186
b01110110 1
#187
b01111010 1
#188
b01000110 0
b01111100 1
#189
b01000111 0
b10000000 1
#190
b10000011 1
#191
b01001001 0
b10000101 1
#192
b01001011 0
b10001001 1
#193
b01001111 0
b10001100 1
#194
b01010001 0
b10001111 1
#195
b01010100 0
b10010010 1
#196
b01010111 0
b10010110 1
#197
b01011011 0
b10011000 1
#198
b01011111 0
b10011011 1
#199
b01100011 0
b10011110 1
#200
b01100111 0
b10100010 1
#201
b01101011 0
b10100101 1
#202
b01110000 0
b10101000 1
#203
b01110101 0
b10101011 1
#204
b01111010 0
b10101110 1
#205
b01111111 0
b10110001 1
#206
b10000100 0
b10110100 1
#207
b10001001 0
b10110111 1
#208
b10001110 0
b10111011 1
#209
b10010011 0
b10111101 1
#210
b10010111 0
b11000000 1
#211
b10011100 0
b10111110 1
#212
b10100001 0
b10111011 1
#213
b10100101 0
b10111000 1
#214
b10101001 0
b10110101 1
#215
b10101101 0
b10110010 1
#216
b10110000 0
b10101111 1
#217
b10110011 0
b10101100 1
#218
b10110111 0
b10101000 1
#219
b10111001 0
b10100101 1
#220
b10111011 0
b10100010 1
#221
b10111110 0
b10011111 1
#222
b10111111 0
b10011100 1
#223
b11000001 0
b10011001 1
#224
b11000010 0
b10010110 1
#225
b11000011 0
b10010011 1
#226
b10010000 1
#227
b10001100 1
#228
b11000001 0
b10001010 1
#229
b10000110 1
#230
b10111111 0
b10000011 1
#231
b10111110 0
b10000000 1
#232
b10111011 0
b01111101 1
#233
b10111001 0
b01111010 1
#234
b10110110 0
b01110111 1
#235
b10110011 0
b01110100 1
#236
b10101111 0
b01110000 1
#237
b10101100 0
b01101110 1
#238
b10101000 0
b01101011 1
#239
b10100100 0
b01100111 1
#240
b10011111 0
b01100100 1
#241
b10011011 0
b01100010 1
#242
b10010111 0
b01011110 1
#243
b10010010 0
b01011011 1
#244
b10001101 0
b01011000 1
#245
b10001000 0
b01010101 1
#246
b10000011 0
b01010010 1
#247
b01111111 0
b01001110 1
#248
b01111001 0
b01001100 1
#249
b01110101 0
b01001000 1
#250
b01101111 0
b01000110 1
#251
b01101011 0
b01000111 1
#252
b01100111 0
b01001011 1
#253
b01100011 0
b01001110 1
#254
b01011111 0
b01010001 1
#255
b01011011 0
b01010101 1
#256
b01010111 0
b01010111 1
#257
b01010011 0
b01011010 1
#258
b01010001 0
b01011110 1
#259
b01001110 0
b01100000 1
#260
b01001011 0
b01100100 1
#261
b01001001 0
b01100110 1
#262
b01000111 0
b01101010 1
#263
b01101101 1
#264
b01000101 0
b01110000 1
#265
b01110100 1
#266
b01000100 0
b01110111 1
#267
b01000101 0
b01111010 1
#268
b01111100 1
#269
b01000111 0
b01111111 1
#270
b01001000 0
b10000011 1
#271
b01001010 0
b10000110 1
#272
b01001011 0
b10001001 1
#273
b01001111 0
b10001011 1
#274
b01010001 0
b10001111 1
#275
b01010100 0
b10010010 1
#276
b01010111 0
b10010101 1
#277
b01011011 0
b10011001 1
#278
b01011111 0
b10011011 1
#279
b01100011 0
b10011110 1
#280
b01100111 0
b10100010 1
#281
b01101011 0
b10100101 1
#282
b01110000 0
b10101000 1
#283
b01110101 0
b10101011 1
#284
b01111010 0
b10101110 1
#285
b01111111 0
b10110001 1
#286
b10000011 0
b10110100 1
#287
b10001000 0
b10110111 1
#288
b10001110 0
b10111010 1
#289
b10010011 0
b10111110 1
#290
b10010111 0
b11000000 1
#291
b10011011 0
b10111110 1
#292
b10100001 0
b10111011 1
#293
b10100100 0
b10111000 1
#294
b10101001 0
b10110101 1
#295
b10101101 0
b10110010 1
#296
b10110000 0
b10101111 1
#297
b10110011 0
b10101100 1
#298
b10110111 0
b10101000 1
#299
b10111001 0
b10100101 1
#300
b10111011 0
b10100010 1
#301
b10111110 0
b10011111 1
#302
b10111111 0
b10011100 1
#303
b11000001 0
b10011001 1
#304
b11000010 0
b10010110 1
#305
b11000011 0
b10010011 1
#306
b10001111 1
#307
b11000010 0
b10001100 1
#308
b10001010 1
#309
b11000001 0
b10000110 1
#310
b10111111 0
b10000011 1
#311
b10111110 0
b10000000 1
#312
b10111011 0
b01111101 1
#313
b10111001 0
b01111010 1
#314
b10110110 0
b01110111 1
#315
b10110011 0
b01110100 1
#316
b10101111 0
b01110001 1
#317
b10101100 0
b01101101 1
#318
b10101001 0
b01101011 1
#319
b10100100 0
b01100111 1
#320
b10100000 0
b01100100 1
#321
b10011011 0
b01100001 1
#322
b10010111 0
b01011110 1
#323
b10010010 0
b01011011 1
#324
b10001110 0
b01011000 1
#325
b10001001 0
b01010100 1
#326
b10000011 0
b01010010 1
#327
b01111111 0
b01001111 1
#328
b01111001 0
b01001011 1
#329
b01110100 0
b01001000 1
#330
b01101111 0
b01000110 1
#331
b01101011 0
b01001000 1
#332
b01100111 0
b01001011 1
#333
b01100011 0
b01001110 1
#334
b01011111 0
b01010001 1
#335
b01011011 0
b01010100 1
#336
b01010111 0
b01010111 1
#337
b01010011 0
b01011010 1
#338
b01010001 0
b01011101 1
#339
b01001111 0
b01100000 1
#340
b01001011 0
b01100011 1
#341
b01001001 0
b01100111 1
#342
b01001000 0
b01101010 1
#343
b01000111 0
b01101101 1
#344
b01000101 0
b01110000 1
#345
b01110011 1
#346
b01110110 1
#347
b01111010 1
#348
b01111100 1
#349
b01000111 0
b10000000 1
#350
b01001000 0
b10000011 1
#351
b01001010 0
b10000110 1
#352
b01001100 0
b10001001 1
#353
b01001111 0
b10001100 1
#354
b01010001 0
b10001111 1
#355
b01010100 0
b10010010 1
#356
b01010111 0
b10010101 1
#357
b01011011 0
b10011000 1
#358
b01011111 0
b10011011 1
#359
b01100011 0
b10011111 1
#360
b01100111 0
b10100010 1
#361
b01101011 0
b10100100 1
#362
b01110000 0
b10101000 1
#363
b01110101 0
b10101011 1
#364
b01111011 0
b10101110 1
#365
b01111111 0
b10110010 1
#366
b10000100 0
b10110100 1
#367
b10001001 0
b10110111 1
#368
b10001110 0
b10111010 1
#369
b10010011 0
b10111110 1
#370
b10010111 0
b11000000 1
#371
b10011011 0
b10111110 1
#372
b10100000 0
b10111011 1
#373
b10100101 0
b10111000 1
#374
b10101001 0
b10110101 1
#375
b10101101 0
b10110010 1
#376
b10101111 0
b10101111 1
#377
b10110011 0
b10101100 1
#378
b10110111 0
b10101000 1
#379
b10111001 0
b10100101 1
#380
b10111011 0
b10100010 1
#381
b10111110 0
b10011111 1
#382
b10111111 0
b10011100 1
#383
b11000000 0
b10011001 1
#384
b11000010 0
b10010110 1
#385
b11000011 0
b10010011 1
#386
b10001111 1
#387
b10001100 1
#388
b11000001 0
b10001010 1
#389
b10000110 1
#390
b10111111 0
b10000011 1
#391
b10111110 0
b10000000 1
#392
b10111011 0
b01111101 1
#393
b10111001 0
b01111010 1
#394
b10110111 0
b01110111 1
#395
b10110011 0
b01110100 1
#396
b10101111 0
b01110000 1
#397
b10101101 0
b01101110 1
#398
b10101000 0
b01101010 1
#399
b10100100 0
b01100111 1
#400
b10011111 0
b01100100 1
#401
b10011011 0
b01100010 1
#402
b10010111 0
b01011110 1
#403
b10010011 0
b01011011 1
#404
b10001101 0
b01011000 1
#405
b10001000 0
b01010101 1
#406
b10000011 0
b01010010 1
#407
b01111111 0
b01001110 1
#408
b01111001 0
b01001011 1
#409
b01110101 0
b01001000 1
#410
b01101111 0
b01000110 1
#411
b01101011 0
b01001000 1
#412
b01100111 0
b01001011 1
#413
b01100011 0
b01001110 1
#414
b01011111 0
b01010001 1
#415
b01011011 0
b01010100 1
#416
b01010111 0
b01010111 1
#417
b01010011 0
b01011010 1
#418
b01010001 0
b01011101 1
#419
b01001110 0
b01100000 1
#420
b01001011 0
b01100100 1
#421
b01001001 0
b01100110 1
#422
b01000111 0
b01101010 1
#423
b01101101 1
#424
b01000101 0
b01110000 1
#425
b01110011 1
#426
b01110110 1
#427
b01111010 1
#428
b01111100 1
#429
b01000111 0
b10000000 1
#430
b01001000 0
b10000010 1
#431
b01001010 0
b10000110 1
#432
b01001011 0
b10001001 1
#433
b01001111 0
b10001100 1
#434
b01010001 0
b10001111 1
#435
b01010100 0
b10010010 1
#436
b01010111 0
b10010110 1
#437
b01011011 0
b10011000 1
#438
b01011111 0
b10011011 1
#439
b01100011 0
b10011110 1
#440
b01100111 0
b10100010 1
#441
b01101011 0
b10100101 1
#442
b01110001 0
b10100111 1
#443
b01110101 0
b10101011 1
#444
b01111010 0
b10101110 1
#445
b01111111 0
b10110001 1
#446
b10000100 0
b10110100 1
#447
b10001001 0
b10110111 1
#448
b10001110 0
b10111010 1
#449
b10010011 0
b10111110 1
#450
b10010111 0
b11000000 1
#451
b10011011 0
b10111110 1
#452
b10100000 0
b10111011 1
#453
b10100101 0
b10111000 1
#454
b10101001 0
b10110101 1
#455
b10101100 0
b10110010 1
#456
b10110000 0
b10101111 1
#457
b10110011 0
b10101100 1
#458
b10110111 0
b10101001 1
#459
b10111001 0
b10100101 1
#460
b10111011 0
b10100010 1
#461
b10111110 0
b10011111 1
#462
b10111111 0
b10011100 1
#463
b11000001 0
b10011010 1
#464
b10010110 1
#465
b11000011 0
b10010011 1
#466
b10010000 1
#467
b10001100 1
#468
b11000010 0
b10001010 1
#469
b11000001 0
b10000110 1
#470
b10111111 0
b10000011 1
#471
b10111110 0
b10000000 1
#472
b10111011 0
b01111101 1
#473
b10111001 0
b01111010 1
#474
b10110111 0
b01110111 1
#475
b10110011 0
b01110100 1
#476
b10101111 0
b01110000 1
#477
b10101100 0
b01101110 1
#478
b10101000 0
b01101010 1
#479
b10100011 0
b01100111 1
#480
b10100000 0
b01100100 1
#481
b10011011 0
b01100001 1
#482
b10010111 0
b01011110 1
#483
b10010010 0
b01011011 1
#484
b10001101 0
b01011000 1
#485
b10001000 0
b01010101 1
#486
b10000011 0
b01010010 1
#487
b01111111 0
b01001111 1
#488
b01111001 0
b01001011 1
#489
b01110101 0
b01001000 1
#490
b01101111 0
b01000101 1
#491
b01101011 0
b01000111 1
#492
b01100111 0
b01001011 1
#493
b01100011 0
b01001110 1
#494
b01011111 0
b01010010 1
#495
b01011011 0
b01010100 1
#496
b01010111 0
b01010111 1
#497
b01010011 0
b01011010 1
#498
b01010001 0
b01011101 1
#499
b01001110 0
b01100000 1
#500
b01001011 0
b01100011 1
#501
b01001001 0
b01100111 1
#502
b01000111 0
b01101010 1
#503
b01101101 1
#504
b01000101 0
b01110000 1
#505
b01110011 1
#506
b01110110 1
#507
b01000100 0
b01111010 1
#508
b01000101 0
b01111100 1
#509
b01000111 0
b01111111 1
#510
b10000010 1
#511
b01001010 0
b10000110 1
#512
b01001011 0
b10001001 1
#513
b01001110 0
b10001100 1
#514
b01010001 0
b10001111 1
#515
b01010100 0
b10010010 1
#516
b01010111 0
b10010110 1
#517
b01011011 0
b10011001 1
#518
b01011111 0
b10011011 1
#519
b01100011 0
b10011110 1
#520
b01100111 0
b10100010 1
#521
b01101011 0
b10100101 1
#522
b01110000 0
b10101000 1
#523
b01110101 0
b10101011 1
#524
b01111011 0
b10101110 1
#525
b01111111 0
b10110010 1
#526
b10000011 0
b10110101 1
#527
b10001001 0
b10111000 1
#528
b10001110 0
b10111010 1
#529
b10010011 0
b10111110 1
#530
b10010111 0
b11000000 1
#531
b10011011 0
b10111110 1
#532
b10100000 0
b10111011 1
#533
b10100101 0
b10111000 1
#534
b10101001 0
b10110101 1
#535
b10101101 0
b10110010 1
#536
b10101111 0
b10101111 1
#537
b10110011 0
b10101100 1
#538
b10110111 0
b10101001 1
#539
b10111001 0
b10100101 1
#540
b10111011 0
b10100010 1
#541
b10111110 0
b10011111 1
#542
b10111111 0
b10011100 1
#543
b11000001 0
b10011000 1
#544
b11000010 0
b10010110 1
#545
b10010011 1
#546
b10001111 1
#547
b11000011 0
b10001101 1
#548
b11000001 0
b10001010 1
#549
b10000110 1
#550
b10111111 0
b10000011 1
#551
b10111101 0
b10000000 1
#552
b10111011 0
b01111101 1
#553
b10111001 0
b01111010 1
#554
b10110110 0
b01110111 1
#555
b10110011 0
b01110100 1
#556
b10101111 0
b01110000 1
#557
b10101100 0
b01101110 1
#558
b10101000 0
b01101010 1
#559
b10100100 0
b01100111 1
#560
b10011111 0
b01100100 1
#561
b10011011 0
b01100001 1
#562
b10010111 0
b01011110 1
#563
b10010010 0
b01011011 1
#564
b10001110 0
b01011000 1
#565
b10001001 0
b01010101 1
#566
b10000011 0
b01010010 1
#567
b01111111 0
b01001110 1
#568
b01111001 0
b01001011 1
#569
b01110101 0
b01001000 1
#570
b01101111 0
b01000101 1
#571
b01101011 0
b01001000 1
#572
b01100111 0
b01001011 1
#573
b01100011 0
b01001110 1
#574
b01011111 0
b01010001 1
#575
b01011011 0
b01010100 1
#576
b01010111 0
b01010111 1
#577
b01010011 0
b01011010 1
#578
b01010001 0
b01011101 1
#579
b01001110 0
b01100001 1
#580
b01001011 0
b01100011 1
#581
b01001001 0
b01100110 1
#582
b01000111 0
b01101010 1
#583
b01101101 1
#584
b01000101 0
b01110000 1
#585
b01110011 1
#586
b01110110 1
#587
b01111010 1
#588
b01000110 0
b01111101 1
#589
b01000111 0
b01111111 1
#590
b10000010 1
#591
b01001010 0
b10000110 1
#592
b01001011 0
b10001001 1
#593
b01001111 0
b10001100 1
#594
b01010001 0
b10001111 1
#595
b01010011 0
b10010010 1
#596
b01010111 0
b10010101 1
#597
b01011011 0
b10011000 1
#598
b01011111 0
b10011100 1
#599
b01100011 0
b10011110 1
#600
b01100111 0
b10100010 1
#601
b01101011 0
b10100101 1
#602
b01110000 0
b10101000 1
#603
b01110101 0
b10101011 1
#604
b01111010 0
b10101110 1
#605
b01111111 0
b10110001 1
#606
b10000011 0
b10110100 1
#607
b10001001 0
b10111000 1
#608
b10001110 0
b10111010 1
#609
b10010011 0
b10111110 1
#610
b10010111 0
b11000000 1
#611
b10011100 0
b10111110 1
#612
b10100000 0
b10111011 1
#613
b10100100 0
b10111000 1
#614
b10101001 0
b10110101 1
#615
b10101101 0
b10110010 1
#616
b10110000 0
b10101111 1
#617
b10110011 0
b10101100 1
#618
b10110111 0
b10101000 1
#619
b10111001 0
b10100101 1
#620
b10111011 0
b10100010 1
#621
b10111110 0
b10011111 1
#622
b10111111 0
b10011100 1
#623
b11000001 0
b10011001 1
#624
b11000010 0
b10010110 1
#625
b10010011 1
#626
b11000011 0
b10001111 1
#627
b11000010 0
b10001100 1
#628
b10001010 1
#629
b11000000 0
b10000110 1
#630
b10111111 0
b10000011 1
#631
b10111110 0
b10000000 1
#632
b10111011 0
b01111101 1
#633
b10111001 0
b01111010 1
#634
b10110110 0
b01110111 1
#635
b10110011 0
b01110011 1
#636
b10101111 0
b01110000 1
#637
b10101101 0
b01101101 1
#638
b10101000 0
b01101010 1
#639
b10100100 0
b01100111 1
#640
b10011111 0
b01100100 1
#641
b10011011 0
b01100010 1
#642
b10010111 0
b01011110 1
#643
b10010010 0
b01011011 1
#644
b10001101 0
b01011000 1
#645
b10001000 0
b01010101 1
#646
b10000011 0
b01010010 1
#647
b01111111 0
b01001110 1
#648
b01111001 0
b01001100 1
#649
b01110100 0
b01001000 1
#650
b01101111 0
b01000110 1
#651
b01101011 0
b01001000 1
#652
b01100111 0
b01001011 1
#653
b01100011 0
b01001110 1
#654
b01011111 0
b01010001 1
#655
b01011011 0
b01010100 1
#656
b01010111 0
b01010111 1
#657
b01010011 0
b01011010 1
#658
b01010001 0
b01011101 1
#659
b01001110 0
b01100000 1
#660
b01001011 0
b01100011 1
#661
b01001001 0
b01100111 1
#662
b01000111 0
b01101010 1
#663
b01101101 1
#664
b01000101 0
b01110000 1
#665
b01110011 1
#666
b01110111 1
#667
b01111010 1
#668
b01111100 1
#669
b01000111 0
b01111111 1
#670
b10000010 1
#671
b01001010 0
b10000110 1
#672
b01001011 0
b10001001 1
#673
b01001111 0
b10001100 1
#674
b01010001 0
b10001111 1
#675
b01010100 0
b10010010 1
#676
b01010111 0
b10010101 1
#677
b01011011 0
b10011001 1
#678
b01011111 0
b10011011 1
#679
b01100011 0
b10011110 1
#680
b01100111 0
b10100010 1
#681
b01101011 0
b10100100 1
#682
b01110000 0
b10100111 1
#683
b01110101 0
b10101011 1
#684
b01111010 0
b10101110 1
#685
b01111111 0
b10110001 1
#686
b10000100 0
b10110101 1
#687
b10001001 0
b10110111 1
#688
b10001110 0
b10111010 1
#689
b10010011 0
b10111101 1
#690
b10010111 0
b11000000 1
#691
b10011011 0
b10111110 1
#692
b10100001 0
b10111011 1
#693
b10100101 0
b10111000 1
#694
b10101001 0
b10110101 1
#695
b10101101 0
b10110010 1
#696
b10110000 0
b10101111 1
#697
b10110011 0
b10101011 1
#698
b10110110 0
b10101001 1
#699
b10111001 0
b10100101 1
#700
b10111011 0
b10100010 1
#701
b10111110 0
b10011111 1
#702
b10111111 0
b10011100 1
#703
b11000001 0
b10011001 1
#704
b11000010 0
b10010110 1
#705
b11000011 0
b10010011 1
#706
b10001111 1
#707
b11000010 0
b10001100 1
#708
b11000001 0
b10001010 1
#709
b10000110 1
#710
b10111111 0
b10000011 1
#711
b10111101 0
b10000000 1
#712
b10111011 0
b01111101 1
#713
b10111001 0
b01111010 1
#714
b10110111 0
b01110111 1
#715
b10110011 0
b01110100 1
#716
b10101111 0
b01110000 1
#717
b10101100 0
b01101110 1
#718
b10101000 0
b01101010 1
#719
b10100011 0
b01100111 1
#720
b10011111 0
b01100100 1
#721
b10011011 0
b01100001 1
#722
b10010111 0
b01011110 1
#723
b10010011 0
b01011011 1
#724
b10001101 0
b01011000 1
#725
b10001000 0
b01010101 1
#726
b10000011 0
b01010010 1
#727
b01111111 0
b01001111 1
#728
b01111010 0
b01001011 1
#729
b01110101 0
b01001000 1
#730
b01110000 0
b01000110 1
#731
b01101011 0
b01001000 1
#732
b01100111 0
b01001011 1
#733
b01100011 0
b01001110 1
#734
b01011111 0
b01010010 1
#735
b01011011 0
b01010100 1
#736
b01010111 0
b01010111 1
#737
b01010100 0
b01011010 1
#738
b01010001 0
b01011101 1
#739
b01001110 0
b01100000 1
#740
b01001011 0
b01100100 1
#741
b01001010 0
b01100111 1
#742
b01000111 0
b01101010 1
#743
b01101101 1
#744
b01000101 0
b01110000 1
#745
b01110011 1
#746
b01110110 1
#747
b01111010 1
#748
b01000110 0
b01111100 1
#749
b01000111 0
b10000000 1
#750
b01001000 0
b10000010 1
#751
b01001010 0
b10000110 1
#752
b01001011 0
b10001001 1
#753
b01001111 0
b10001100 1
#754
b01010001 0
b10001111 1
#755
b01010011 0
b10010010 1
#756
b01010111 0
b10010101 1
#757
b01011011 0
b10011001 1
#758
b01011111 0
b10011011 1
#759
b01100011 0
b10011110 1
#760
b01100111 0
b10100010 1
#761
b01101011 0
b10100101 1
#762
b01110000 0
b10100111 1
#763
b01110101 0
b10101011 1
#764
b01111010 0
b10101110 1
#765
b01111111 0
b10110001 1
#766
b10000011 0
b10110100 1
#767
b10001001 0
b10110111 1
#768
b10001110 0
b10111010 1
#769
b10010011 0
b10111110 1
#770
b10010111 0
b11000000 1
#771
b10011011 0
b10111110 1
#772
b10100000 0
b10111011 1
#773
b10100100 0
b10111000 1
#774
b10101001 0
b10110101 1
#775
b10101101 0
b10110010 1
#776
b10101111 0
b10101111 1
#777
b10110011 0
b10101100 1
#778
b10110111 0
b10101000 1
#779
b10111001 0
b10100101 1
#780
b10111011 0
b10100010 1
#781
b10111110 0
b10011111 1
#782
b10111111 0
b10011100 1
#783
b11000001 0
b10011001 1
#784
b11000010 0
b10010110 1
#785
b11000011 0
b10010011 1
#786
b10001111 1
#787
b10001101 1
#788
b11000001 0
b10001010 1
#789
b10000110 1
#790
b10111111 0
b10000011 1
#791
b10111110 0
b10000000 1
#792
b10111011 0
b01111101 1
#793
b10111001 0
b01111010 1
#794
b10110111 0
b01110111 1
#795
b10110011 0
b01110011 1
#796
b10101111 0
b01110000 1
#797
b10101100 0
b01101110 1
#798
b10101001 0
b01101010 1
#799
b10100100 0
b01100111 1
#800
b10011111 0
b01100100 1
#801
b10011011 0
b01100010 1
#802
b10010111 0
b01011110 1
#803
b10010010 0
b01011011 1
#804
b10001101 0
b01011000 1
#805
b10001001 0
b01010101 1
#806
b10000011 0
b01010010 1
#807
b01111111 0
b01001110 1
#808
b01111010 0
b01001011 1
#809
b01110101 0
b01001000 1
#810
b01110000 0
b01000110 1
#811
b01101011 0
b01000111 1
#812
b01100111 0
b01001010 1
#813
b01100011 0
b01001110 1
#814
b01011111 0
b01010001 1
#815
b01011011 0
b01010100 1
#816
b01010111 0
b01010111 1
#817
b01010011 0
b01011010 1
#818
b01010001 0
b01011101 1
#819
b01001110 0
b01100000 1
#820
b01001011 0
b01100011 1
#821
b01001010 0
b01100110 1
#822
b01000111 0
b01101010 1
#823
b01101101 1
#824
b01000110 0
b01110000 1
#825
b01000101 0
b01110011 1
#826
b01110110 1
#827
b01111010 1
#828
b01111100 1
#829
b01000111 0
b10000000 1
#830
b01001000 0
b10000010 1
#831
b01001010 0
b10000110 1
#832
b01001011 0
b10001001 1
#833
b01001111 0
b10001100 1
#834
b01010001 0
b10001111 1
#835
b01010101 0
b10010010 1
#836
b01010111 0
b10010101 1
#837
b01011011 0
b10011000 1
#838
b01011111 0
b10011100 1
#839
b01100011 0
b10011110 1
#840
b01100111 0
b10100010 1
#841
b01101100 0
b10100101 1
#842
b01110000 0
b10101000 1
#843
b01110101 0
b10101011 1
#844
b01111011 0
b10101110 1
#845
b01111111 0
b10110001 1
#846
b10000011 0
b10110100 1
#847
b10001001 0
b10110111 1
#848
b10001110 0
b10111010 1
#849
b10010011 0
b10111110 1
#850
b10010111 0
b11000000 1
#851
b10011011 0
b10111110 1
#852
b10100000 0
b10111011 1
#853
b10100101 0
b10111000 1
#854
b10101001 0
b10110101 1
#855
b10101101 0
b10110010 1
#856
b10101111 0
b10101111 1
#857
b10110011 0
b10101100 1
#858
b10110111 0
b10101000 1
#859
b10111001 0
b10100101 1
#860
b10111011 0
b10100010 1
#861
b10111101 0
b10011111 1
#862
b10111111 0
b10011100 1
#863
b11000001 0
b10011001 1
#864
b11000010 0
b10010110 1
#865
b11000011 0
b10010010 1
#866
b10001111 1
#867
b10001100 1
#868
b11000010 0
b10001010 1
#869
b11000001 0
b10000110 1
#870
b10111111 0
b10000011 1
#871
b10111110 0
b10000000 1
#872
b10111011 0
b01111101 1
#873
b10111001 0
b01111010 1
#874
b10110111 0
b01110111 1
#875
b10110011 0
b01110100 1
#876
b10101111 0
b01110000 1
#877
b10101100 0
b01101101 1
#878
b10101001 0
b01101010 1
#879
b10100100 0
b01100111 1
#880
b10011111 0
b01100100 1
#881
b10011011 0
b01100010 1
#882
b10010111 0
b01011110 1
#883
b10010011 0
b01011011 1
#884
b10001101 0
b01011000 1
#885
b10001001 0
b01010101 1
#886
b10000011 0
b01010010 1
#887
b01111111 0
b01001111 1
#888
b01111001 0
b01001011 1
#889
b01110101 0
b01001000 1
#890
b01101111 0
b01000110 1
#891
b01101011 0
b01001000 1
#892
b01100111 0
b01001011 1
#893
b01100011 0
b01001110 1
#894
b01011111 0
b01010001 1
#895
b01011011 0
b01010100 1
#896
b01010111 0
b01010111 1
#897
b01010011 0
b01011010 1
#898
b01010001 0
b01011101 1
#899
b01001110 0
b01100000 1
#900
b01001011 0
b01100011 1
#901
b01001010 0
b01100111 1
